{
  "id": "PERSONACUATRO",
  "name": "PERSONACUATRO",
  "states": [
    {
      "id": 1,
      "name": "Registrado"
    },
    {
      "id": 2,
      "name": "Activo"
    },{
      "id": 3,
      "name": "Inactivo"
    }
  ],
  "actions": [
    {
      "id": 1,
      "name": "Registrar"
    },
    {
      "id": 2,
      "name": "Editar"
    },
    {
      "id": 3,
      "name": "Eliminar"
    },{
      "id": 4,
      "name": "Consultar"
    },
    {
      "id": 5,
      "name": "Configuracion"
    }
  ],
  "operations": [
    {
      "idState": 1,
      "idAction": 1
    },
    {
      "idState": 1,
      "idAction": 2
    },{
      "idState": 2,
      "idAction": 2
    },
    {
      "idState": 1,
      "idAction": 3
    },
    {
      "idState": 1,
      "idAction": 4
    },
    {
      "idState": 2,
      "idAction": 4
    },
    {
      "idState": 3,
      "idAction": 4
    },{
      "idState": 1,
      "idAction": 5
    },
    {
      "idState": 2,
      "idAction": 5
    }
  ],
  "transitions": [
    {
      "origin": 1,
      "destination": 2
    },
    {
      "origin": 2,
      "destination": 3
    },
    {
      "origin": 3,
      "destination": 2
    }
  ]
}